STATS 32 Final Project
…
A summary allow helps us to see that these top 10 recipient countries receive a similar count of ~60-70 instances of funding:

incomegruniq %>%
  group_by(RecipientNameE)%>%
  summarize(totalfunding = sum(Defl, na.rm = TRUE), count = n())%>%
  arrange(desc(totalfunding))

## # A tibble: 28 x 3
##    RecipientNameE               totalfunding count
##    <fct>                               <dbl> <int>
##  1 India                               7821.    69
##  2 Afghanistan                         6806.    60
##  3 Viet Nam                            4770.    70
##  4 Bangladesh                          4035.    63
##  5 Indonesia                           3997.    64
##  6 Pakistan                            3795.    60
##  7 China (People's Republic of)        2477.    69
##  8 Myanmar                             2359.    56
##  9 Philippines                         1621.    56
## 10 Nepal                               1430.    60
## # ... with 18 more rows
…
A summary allow helps us to see that these top 10 donor countries instances of funding:

asiafunds_nosum %>%
  group_by(donornamee)%>%
  summarize(totalfunding = sum(Defl, na.rm = TRUE), count = n())%>%
  arrange(desc(totalfunding))

## # A tibble: 30 x 3
##    donornamee      totalfunding count
##    <fct>                  <dbl> <int>
##  1 Japan                 16892.   105
##  2 United States          8142.    65
##  3 Germany                7600.    92
##  4 EU Institutions        4497.    88
##  5 United Kingdom         3827.    66
##  6 France                 2216.    92
##  7 Australia              1520.    51
##  8 Korea                  1479.    84
##  9 Canada                 1054.    64
## 10 Switzerland             881.    62
## # ... with 20 more rows
…
